Taking text data to the next level
…
What we see is that our data set has five variables containing information on doc_id, text, country, session, and year. The text of the speech is stored in the variable text, the doc_id gives us a unique id for each document.

No we turn to the time and geographical coverage:

un_data %>%
  overview_tab(id = country, time = year)

# A tibble: 197 x 2
# Groups:   country [197]
   country time_frame 
   <chr>   <chr>      
 1 AFG     2000 - 2018
 2 AGO     2000 - 2018
 3 ALB     2000 - 2018
 4 AND     2000 - 2018
 5 ARE     2000 - 2018
 6 ARG     2000 - 2018
 7 ARM     2000 - 2018
 8 ATG     2000 - 2018
 9 AUS     2000 - 2018
10 AUT     2000 - 2018
# … with 187 more rows
…
